[
    {
        "keys": [
            ":"
        ],
        "type": "function",
        "command": "enter_command_line_mode"
    },
    {
        "keys": [
            "TAB"
        ],
        "type": "function",
        "command": "focus_next"
    },
    {
        "keys": [
            "SHIFT_TAB"
        ],
        "type": "function",
        "command": "focus_previous"
    },
    {
        "keys": [
            "UP"
        ],
        "type": "function",
        "command": "move_up"
    },
    {
        "keys": [
            "DOWN"
        ],
        "type": "function",
        "command": "move_down"
    },
    {
        "keys": [
            "PAGE_UP"
        ],
        "type": "function",
        "command": "page_up"
    },
    {
        "keys": [
            "PAGE_DOWN"
        ],
        "type": "function",
        "command": "page_down"
    },
    {
        "keys": [
            "U"
        ],
        "type": "function",
        "command": "page_up"
    },
    {
        "keys": [
            "D"
        ],
        "type": "function",
        "command": "page_down"
    },
    {
        "keys": [
            "ENTER"
        ],
        "type": "function",
        "command": "activate"
    },
    {
        "keys": [
            "DELETE",
            "BACKSPACE",
            "d",
            "x"
        ],
        "type": "function",
        "command": "delete"
    },
    {
        "keys": [
            " "
        ],
        "command": "todo toggle $n"
    },
    {
        "keys": [
            "t"
        ],
        "command": "todo clear $n"
    },
    {
        "keys": [
            "tc"
        ],
        "type": "function",
        "command": "toggle_console"
    },
    {
        "keys": [
            "tm"
        ],
        "type": "function",
        "command": "toggle_metadata"
    },
    {
        "keys": [
            "/"
        ],
        "type": "prompt",
        "command": "search \"\"",
        "cursorPosition": -2
    },
    {
        "keys": [
            "mn"
        ],
        "type": "prompt",
        "command": "mknote \"\"",
        "cursorPosition": -2
    },
    {
        "keys": [
            "mt"
        ],
        "ype": "prompt",
        "command": "mktodo \"\"",
        "cursorPosition": -2
    },
    {
        "keys": [
            "mb"
        ],
        "type": "prompt",
        "command": "mkbook \"\"",
        "cursorPosition": -2
    },
    {
        "keys": [
            "y"
        ],
        "type": "prompt",
        "command": "cp $n \"\"",
        "cursorPosition": -2
    },
    {
        "keys": [
            "mv"
        ],
        "type": "prompt",
        "command": "mv $n \"\"",
        "cursorPosition": -2
    },
    {
        "keys": [
            "CTRL_S"
        ],
        "type": "prompt",
        "command": "sync"
    },
    {
        "keys": [
            "l"
        ],
        "type": "function",
        "command": "focus_next"
    },
    {
        "keys": [
            "h"
        ],
        "type": "function",
        "command": "focus_previous"
    },
    {
        "keys": [
            "k"
        ],
        "type": "function",
        "command": "move_up"
    },
    {
        "keys": [
            "j"
        ],
        "type": "function",
        "command": "move_down"
    },
    {
        "keys": [
            "q"
        ],
        "type": "prompt",
        "command": "exit"
    }
]
